{
  "name": "djangoapp",
  "group": "ABCAPI",
  "version": 1,
  "swagger": "http://swagger.com",
  "stats": "http://stats.com",
  "ports": {
    "data": 8000,
    "maintenance": 8000
  },
  "apis": {
    "main": {
      "get": {
        "/admin/": {
          "access": false,
          "label": "Admin site"
        }
      }
    }
  }
}